yashm@DESKTOP-BJDMDRV MINGW64 ~/Documents/Degree/Backend/Framework/wordoid (categories)
$ php artisan serve
Starting Laravel development server: http://127.0.0.1:8000
[Thu Jun 24 18:09:47 2021] PHP 8.0.1 Development Server (http://127.0.0.1:8000)
started
[Thu Jun 24 18:09:52 2021] 127.0.0.1:53151 Accepted
[Thu Jun 24 18:09:52 2021] 127.0.0.1:59833 Accepted
[Thu Jun 24 18:09:53 2021] 127.0.0.1:53151 Closing
[Thu Jun 24 18:09:53 2021] 127.0.0.1:60140 Accepted
[Thu Jun 24 18:09:54 2021] 127.0.0.1:59833 [200]: GET /favicon.ico
[Thu Jun 24 18:09:54 2021] 127.0.0.1:59833 Closing
[Thu Jun 24 18:09:59 2021] 127.0.0.1:60140 Closing
[Thu Jun 24 18:09:59 2021] 127.0.0.1:49730 Accepted
[Thu Jun 24 18:09:59 2021] 127.0.0.1:49730 [200]: GET /css/app.css
[Thu Jun 24 18:10:00 2021] 127.0.0.1:49730 Closing
[Thu Jun 24 18:10:00 2021] 127.0.0.1:60615 Accepted
[Thu Jun 24 18:10:00 2021] 127.0.0.1:60615 [200]: GET /js/app.js
[Thu Jun 24 18:10:00 2021] 127.0.0.1:60615 Closing
[Thu Jun 24 18:10:00 2021] 127.0.0.1:56353 Accepted
[Thu Jun 24 18:10:00 2021] 127.0.0.1:56353 [200]: GET /favicon.ico
[Thu Jun 24 18:10:00 2021] 127.0.0.1:56353 Closing
[Thu Jun 24 18:10:00 2021] 127.0.0.1:53707 Accepted
[Thu Jun 24 18:10:17 2021] 127.0.0.1:53707 Closing
[Thu Jun 24 18:10:17 2021] 127.0.0.1:65074 Accepted
[Thu Jun 24 18:10:18 2021] 127.0.0.1:65074 Closing
[Thu Jun 24 18:10:18 2021] 127.0.0.1:58941 Accepted
[Thu Jun 24 18:10:18 2021] 127.0.0.1:52047 Accepted
[Thu Jun 24 18:10:18 2021] 127.0.0.1:58941 [200]: GET /admin-panel/css/bootstrap
.min.css
[Thu Jun 24 18:10:18 2021] 127.0.0.1:52047 [200]: GET /admin-panel/js/bootstrap.
min.js
[Thu Jun 24 18:10:18 2021] 127.0.0.1:58941 Closing
[Thu Jun 24 18:10:18 2021] 127.0.0.1:52047 Closing
[Thu Jun 24 18:10:18 2021] 127.0.0.1:56577 Accepted
[Thu Jun 24 18:10:18 2021] 127.0.0.1:56577 [200]: GET /favicon.ico
[Thu Jun 24 18:10:18 2021] 127.0.0.1:56577 Closing
[Thu Jun 24 18:10:23 2021] 127.0.0.1:62053 Accepted
[Thu Jun 24 18:10:23 2021] 127.0.0.1:52474 Accepted
[Thu Jun 24 18:10:23 2021] 127.0.0.1:62053 Closing
[Thu Jun 24 18:10:23 2021] 127.0.0.1:52474 [200]: GET /admin-panel/css/bootstrap
.min.css
[Thu Jun 24 18:10:23 2021] 127.0.0.1:52474 Closing
[Thu Jun 24 18:10:23 2021] 127.0.0.1:62202 Accepted
[Thu Jun 24 18:10:23 2021] 127.0.0.1:62202 [200]: GET /admin-panel/js/bootstrap.
min.js
[Thu Jun 24 18:10:23 2021] 127.0.0.1:62202 Closing
[Thu Jun 24 18:10:23 2021] 127.0.0.1:49319 Accepted
[Thu Jun 24 18:10:23 2021] 127.0.0.1:49319 [200]: GET /favicon.ico
[Thu Jun 24 18:10:23 2021] 127.0.0.1:49319 Closing
[Thu Jun 24 18:10:24 2021] 127.0.0.1:49242 Accepted
[Thu Jun 24 18:10:24 2021] 127.0.0.1:49242 Closing
[Thu Jun 24 18:10:25 2021] 127.0.0.1:60197 Accepted
[Thu Jun 24 18:10:25 2021] 127.0.0.1:60197 [200]: GET /admin-panel/css/bootstrap
.min.css
[Thu Jun 24 18:10:25 2021] 127.0.0.1:60197 Closing
[Thu Jun 24 18:10:25 2021] 127.0.0.1:59352 Accepted
[Thu Jun 24 18:10:25 2021] 127.0.0.1:59352 [200]: GET /admin-panel/js/bootstrap.
min.js
[Thu Jun 24 18:10:25 2021] 127.0.0.1:59352 Closing
[Thu Jun 24 18:10:25 2021] 127.0.0.1:52338 Accepted
[Thu Jun 24 18:10:25 2021] 127.0.0.1:52338 [200]: GET /favicon.ico
[Thu Jun 24 18:10:25 2021] 127.0.0.1:52338 Closing
[Thu Jun 24 18:10:25 2021] 127.0.0.1:62453 Accepted
[Thu Jun 24 18:10:27 2021] 127.0.0.1:62453 Closing
[Thu Jun 24 18:10:27 2021] 127.0.0.1:65411 Accepted
[Thu Jun 24 18:10:27 2021] 127.0.0.1:65411 [200]: GET /admin-panel/css/bootstrap
.min.css
[Thu Jun 24 18:10:27 2021] 127.0.0.1:65411 Closing
[Thu Jun 24 18:10:28 2021] 127.0.0.1:61130 Accepted
[Thu Jun 24 18:10:28 2021] 127.0.0.1:61130 [200]: GET /admin-panel/js/bootstrap.
min.js
[Thu Jun 24 18:10:28 2021] 127.0.0.1:61130 Closing
[Thu Jun 24 18:10:28 2021] 127.0.0.1:62014 Accepted
[Thu Jun 24 18:10:28 2021] 127.0.0.1:62014 [200]: GET /favicon.ico
[Thu Jun 24 18:10:28 2021] 127.0.0.1:62014 Closing
[Thu Jun 24 18:10:28 2021] 127.0.0.1:57148 Accepted
[Thu Jun 24 18:10:33 2021] 127.0.0.1:57148 Closing
[Thu Jun 24 18:10:33 2021] 127.0.0.1:60041 Accepted
[Thu Jun 24 18:10:33 2021] 127.0.0.1:60041 [200]: GET /admin-panel/css/bootstrap
.min.css
[Thu Jun 24 18:10:33 2021] 127.0.0.1:60041 Closing
[Thu Jun 24 18:10:33 2021] 127.0.0.1:50467 Accepted
[Thu Jun 24 18:10:33 2021] 127.0.0.1:50467 [200]: GET /admin-panel/js/bootstrap.
min.js
[Thu Jun 24 18:10:33 2021] 127.0.0.1:50467 Closing
[Thu Jun 24 18:10:33 2021] 127.0.0.1:62451 Accepted
[Thu Jun 24 18:10:33 2021] 127.0.0.1:62451 [200]: GET /favicon.ico
[Thu Jun 24 18:10:33 2021] 127.0.0.1:62451 Closing
[Thu Jun 24 18:10:34 2021] 127.0.0.1:55637 Accepted
[Thu Jun 24 18:12:05 2021] 127.0.0.1:55637 Closed without sending a request; it
was probably just an unused speculative preconnection
[Thu Jun 24 18:12:05 2021] 127.0.0.1:55637 Closing
[Thu Jun 24 18:12:05 2021] 127.0.0.1:60569 Accepted
[Thu Jun 24 18:12:05 2021] 127.0.0.1:59548 Accepted
[Thu Jun 24 18:12:05 2021] 127.0.0.1:60569 Closing
[Thu Jun 24 18:12:05 2021] 127.0.0.1:59548 [200]: GET /admin-panel/css/bootstrap
.min.css
[Thu Jun 24 18:12:05 2021] 127.0.0.1:59548 Closing
[Thu Jun 24 18:12:05 2021] 127.0.0.1:61637 Accepted
[Thu Jun 24 18:12:05 2021] 127.0.0.1:61637 [200]: GET /admin-panel/js/bootstrap.
min.js
[Thu Jun 24 18:12:05 2021] 127.0.0.1:61637 Closing
[Thu Jun 24 18:12:06 2021] 127.0.0.1:64189 Accepted
[Thu Jun 24 18:12:06 2021] 127.0.0.1:64189 [200]: GET /favicon.ico
[Thu Jun 24 18:12:06 2021] 127.0.0.1:64189 Closing
[Thu Jun 24 18:12:06 2021] 127.0.0.1:52039 Accepted
[Thu Jun 24 18:12:17 2021] 127.0.0.1:52039 Closing
[Thu Jun 24 18:12:17 2021] 127.0.0.1:61677 Accepted
[Thu Jun 24 18:12:17 2021] 127.0.0.1:61677 Closing
[Thu Jun 24 18:12:17 2021] 127.0.0.1:59753 Accepted
[Thu Jun 24 18:12:17 2021] 127.0.0.1:59111 Accepted
[Thu Jun 24 18:12:17 2021] 127.0.0.1:59753 [200]: GET /admin-panel/css/bootstrap
.min.css
[Thu Jun 24 18:12:17 2021] 127.0.0.1:59111 [200]: GET /admin-panel/js/bootstrap.
min.js
[Thu Jun 24 18:12:17 2021] 127.0.0.1:59753 Closing
[Thu Jun 24 18:12:17 2021] 127.0.0.1:59111 Closing
[Thu Jun 24 18:12:18 2021] 127.0.0.1:65221 Accepted
[Thu Jun 24 18:12:18 2021] 127.0.0.1:65221 [200]: GET /favicon.ico
[Thu Jun 24 18:12:18 2021] 127.0.0.1:65221 Closing
[Thu Jun 24 18:12:18 2021] 127.0.0.1:58321 Accepted
[Thu Jun 24 18:12:20 2021] 127.0.0.1:58321 Closing
[Thu Jun 24 18:12:20 2021] 127.0.0.1:57225 Accepted
[Thu Jun 24 18:12:20 2021] 127.0.0.1:57225 [200]: GET /admin-panel/css/bootstrap
.min.css
[Thu Jun 24 18:12:20 2021] 127.0.0.1:57225 Closing
[Thu Jun 24 18:12:20 2021] 127.0.0.1:54835 Accepted
[Thu Jun 24 18:12:20 2021] 127.0.0.1:54835 [200]: GET /admin-panel/js/bootstrap.
min.js
[Thu Jun 24 18:12:20 2021] 127.0.0.1:54835 Closing
[Thu Jun 24 18:12:20 2021] 127.0.0.1:54876 Accepted
[Thu Jun 24 18:12:20 2021] 127.0.0.1:54876 [200]: GET /favicon.ico
[Thu Jun 24 18:12:20 2021] 127.0.0.1:54876 Closing
[Thu Jun 24 18:12:21 2021] 127.0.0.1:56792 Accepted
[Thu Jun 24 18:12:21 2021] 127.0.0.1:56792 Closing
[Thu Jun 24 18:12:21 2021] 127.0.0.1:60130 Accepted
[Thu Jun 24 18:12:21 2021] 127.0.0.1:60130 [200]: GET /admin-panel/css/bootstrap
.min.css
[Thu Jun 24 18:12:21 2021] 127.0.0.1:60130 Closing
[Thu Jun 24 18:12:22 2021] 127.0.0.1:64895 Accepted
[Thu Jun 24 18:12:22 2021] 127.0.0.1:64895 [200]: GET /admin-panel/js/bootstrap.
min.js
[Thu Jun 24 18:12:22 2021] 127.0.0.1:64895 Closing
[Thu Jun 24 18:12:22 2021] 127.0.0.1:57602 Accepted
[Thu Jun 24 18:12:22 2021] 127.0.0.1:57602 [200]: GET /favicon.ico
[Thu Jun 24 18:12:22 2021] 127.0.0.1:57602 Closing
[Thu Jun 24 18:12:22 2021] 127.0.0.1:59645 Accepted
[Thu Jun 24 18:12:24 2021] 127.0.0.1:59645 Closing
[Thu Jun 24 18:12:24 2021] 127.0.0.1:60978 Accepted
[Thu Jun 24 18:12:24 2021] 127.0.0.1:60978 [200]: GET /admin-panel/css/bootstrap
.min.css
[Thu Jun 24 18:12:24 2021] 127.0.0.1:60978 Closing
[Thu Jun 24 18:12:24 2021] 127.0.0.1:63397 Accepted
[Thu Jun 24 18:12:24 2021] 127.0.0.1:63397 [200]: GET /admin-panel/js/bootstrap.
min.js
[Thu Jun 24 18:12:24 2021] 127.0.0.1:63397 Closing
[Thu Jun 24 18:12:25 2021] 127.0.0.1:52368 Accepted
[Thu Jun 24 18:12:25 2021] 127.0.0.1:52368 [200]: GET /favicon.ico
[Thu Jun 24 18:12:25 2021] 127.0.0.1:52368 Closing
[Thu Jun 24 18:12:25 2021] 127.0.0.1:60232 Accepted
[Thu Jun 24 18:12:25 2021] 127.0.0.1:60232 Closing
[Thu Jun 24 18:12:25 2021] 127.0.0.1:52126 Accepted
[Thu Jun 24 18:12:25 2021] 127.0.0.1:52126 [200]: GET /admin-panel/css/bootstrap
.min.css
[Thu Jun 24 18:12:25 2021] 127.0.0.1:52126 Closing
[Thu Jun 24 18:12:25 2021] 127.0.0.1:53507 Accepted
[Thu Jun 24 18:12:25 2021] 127.0.0.1:53507 [200]: GET /admin-panel/js/bootstrap.
min.js
[Thu Jun 24 18:12:25 2021] 127.0.0.1:53507 Closing
[Thu Jun 24 18:12:26 2021] 127.0.0.1:58350 Accepted
[Thu Jun 24 18:12:26 2021] 127.0.0.1:58350 [200]: GET /favicon.ico
[Thu Jun 24 18:12:26 2021] 127.0.0.1:58350 Closing
[Thu Jun 24 18:12:26 2021] 127.0.0.1:50636 Accepted
[Thu Jun 24 18:13:37 2021] 127.0.0.1:50636 Closed without sending a request; it
was probably just an unused speculative preconnection
[Thu Jun 24 18:13:37 2021] 127.0.0.1:50636 Closing
[Thu Jun 24 18:13:38 2021] 127.0.0.1:55465 Accepted
[Thu Jun 24 18:13:38 2021] 127.0.0.1:61354 Accepted
[Thu Jun 24 18:13:38 2021] 127.0.0.1:55465 Closing
[Thu Jun 24 18:13:38 2021] 127.0.0.1:61354 [200]: GET /admin-panel/css/bootstrap
.min.css
[Thu Jun 24 18:13:38 2021] 127.0.0.1:61354 Closing
[Thu Jun 24 18:13:38 2021] 127.0.0.1:58864 Accepted
[Thu Jun 24 18:13:38 2021] 127.0.0.1:58864 [200]: GET /admin-panel/js/bootstrap.
min.js
[Thu Jun 24 18:13:38 2021] 127.0.0.1:58864 Closing
[Thu Jun 24 18:13:38 2021] 127.0.0.1:61933 Accepted
[Thu Jun 24 18:13:38 2021] 127.0.0.1:61933 [200]: GET /favicon.ico
[Thu Jun 24 18:13:38 2021] 127.0.0.1:61933 Closing
[Thu Jun 24 18:13:38 2021] 127.0.0.1:59579 Accepted
[Thu Jun 24 18:13:41 2021] 127.0.0.1:59579 [200]: GET /admin-panel/css/bootstrap
.min.css
[Thu Jun 24 18:13:41 2021] 127.0.0.1:59579 Closing
[Thu Jun 24 18:13:42 2021] 127.0.0.1:53808 Accepted
[Thu Jun 24 18:13:42 2021] 127.0.0.1:57996 Accepted
[Thu Jun 24 18:13:42 2021] 127.0.0.1:53808 Closing
[Thu Jun 24 18:13:42 2021] 127.0.0.1:57996 Closing
[Thu Jun 24 18:13:42 2021] 127.0.0.1:64150 Accepted
[Thu Jun 24 18:14:51 2021] 127.0.0.1:64150 Closed without sending a request; it
was probably just an unused speculative preconnection
[Thu Jun 24 18:14:51 2021] 127.0.0.1:64150 Closing
[Thu Jun 24 18:15:10 2021] 127.0.0.1:57801 Accepted
[Thu Jun 24 18:15:10 2021] 127.0.0.1:55059 Accepted
[Thu Jun 24 18:15:10 2021] 127.0.0.1:57801 Closing
[Thu Jun 24 18:15:10 2021] 127.0.0.1:55059 [200]: GET /admin-panel/css/bootstrap
.min.css
[Thu Jun 24 18:15:10 2021] 127.0.0.1:55059 Closing
[Thu Jun 24 18:15:10 2021] 127.0.0.1:62781 Accepted
[Thu Jun 24 18:15:10 2021] 127.0.0.1:62781 [200]: GET /admin-panel/js/bootstrap.
min.js
[Thu Jun 24 18:15:10 2021] 127.0.0.1:62781 Closing
[Thu Jun 24 18:15:10 2021] 127.0.0.1:61761 Accepted
[Thu Jun 24 18:15:10 2021] 127.0.0.1:61761 [200]: GET /favicon.ico
[Thu Jun 24 18:15:10 2021] 127.0.0.1:61761 Closing
[Thu Jun 24 18:15:11 2021] 127.0.0.1:58131 Accepted
[Thu Jun 24 18:15:14 2021] 127.0.0.1:58131 Closing
[Thu Jun 24 18:15:14 2021] 127.0.0.1:64988 Accepted
[Thu Jun 24 18:15:14 2021] 127.0.0.1:64988 [200]: GET /admin-panel/css/bootstrap
.min.css
[Thu Jun 24 18:15:14 2021] 127.0.0.1:64988 Closing
[Thu Jun 24 18:15:14 2021] 127.0.0.1:52481 Accepted
[Thu Jun 24 18:15:14 2021] 127.0.0.1:52481 [200]: GET /admin-panel/js/bootstrap.
min.js
[Thu Jun 24 18:15:14 2021] 127.0.0.1:52481 Closing
[Thu Jun 24 18:15:15 2021] 127.0.0.1:51887 Accepted
[Thu Jun 24 18:15:15 2021] 127.0.0.1:51887 [200]: GET /favicon.ico
[Thu Jun 24 18:15:15 2021] 127.0.0.1:51887 Closing
[Thu Jun 24 18:15:15 2021] 127.0.0.1:53090 Accepted
[Thu Jun 24 18:15:17 2021] 127.0.0.1:53090 Closing
[Thu Jun 24 18:15:17 2021] 127.0.0.1:60422 Accepted
[Thu Jun 24 18:15:17 2021] 127.0.0.1:60422 [200]: GET /admin-panel/css/bootstrap
.min.css
[Thu Jun 24 18:15:17 2021] 127.0.0.1:60422 Closing
[Thu Jun 24 18:15:18 2021] 127.0.0.1:50078 Accepted
[Thu Jun 24 18:15:18 2021] 127.0.0.1:50078 [200]: GET /admin-panel/js/bootstrap.
min.js
[Thu Jun 24 18:15:18 2021] 127.0.0.1:50078 Closing
[Thu Jun 24 18:15:18 2021] 127.0.0.1:55260 Accepted
[Thu Jun 24 18:15:18 2021] 127.0.0.1:55260 [200]: GET /favicon.ico
[Thu Jun 24 18:15:18 2021] 127.0.0.1:55260 Closing
[Thu Jun 24 18:15:18 2021] 127.0.0.1:57465 Accepted
[Thu Jun 24 18:19:52 2021] 127.0.0.1:57465 Closed without sending a request; it
was probably just an unused speculative preconnection
[Thu Jun 24 18:19:52 2021] 127.0.0.1:57465 Closing
[Thu Jun 24 18:40:51 2021] 127.0.0.1:49670 Accepted
[Thu Jun 24 18:40:51 2021] 127.0.0.1:63770 Accepted
[Thu Jun 24 18:40:51 2021] 127.0.0.1:49670 Closing
[Thu Jun 24 18:40:51 2021] 127.0.0.1:63770 [200]: GET /admin-panel/css/bootstrap
.min.css
[Thu Jun 24 18:40:51 2021] 127.0.0.1:63770 Closing
[Thu Jun 24 18:40:51 2021] 127.0.0.1:56751 Accepted
[Thu Jun 24 18:40:51 2021] 127.0.0.1:56751 [200]: GET /admin-panel/js/bootstrap.
min.js
[Thu Jun 24 18:40:51 2021] 127.0.0.1:56751 Closing
[Thu Jun 24 18:40:52 2021] 127.0.0.1:60236 Accepted
[Thu Jun 24 18:40:52 2021] 127.0.0.1:60236 [200]: GET /favicon.ico
[Thu Jun 24 18:40:52 2021] 127.0.0.1:60236 Closing
[Thu Jun 24 18:40:52 2021] 127.0.0.1:53878 Accepted
[Thu Jun 24 18:40:54 2021] 127.0.0.1:53878 Closing
[Thu Jun 24 18:40:54 2021] 127.0.0.1:63225 Accepted
[Thu Jun 24 18:40:54 2021] 127.0.0.1:63225 [200]: GET /admin-panel/css/bootstrap
.min.css
[Thu Jun 24 18:40:54 2021] 127.0.0.1:63225 Closing
[Thu Jun 24 18:40:54 2021] 127.0.0.1:62059 Accepted
[Thu Jun 24 18:40:54 2021] 127.0.0.1:62059 [200]: GET /admin-panel/js/bootstrap.
min.js
[Thu Jun 24 18:40:54 2021] 127.0.0.1:62059 Closing
[Thu Jun 24 18:40:55 2021] 127.0.0.1:57447 Accepted
[Thu Jun 24 18:40:55 2021] 127.0.0.1:57447 [200]: GET /favicon.ico
[Thu Jun 24 18:40:55 2021] 127.0.0.1:57447 Closing
[Thu Jun 24 18:40:55 2021] 127.0.0.1:61175 Accepted
[Thu Jun 24 18:41:01 2021] 127.0.0.1:61175 Closing
[Thu Jun 24 18:41:01 2021] 127.0.0.1:62901 Accepted
[Thu Jun 24 18:41:01 2021] 127.0.0.1:62901 Closing
[Thu Jun 24 18:41:01 2021] 127.0.0.1:60208 Accepted
[Thu Jun 24 18:41:01 2021] 127.0.0.1:57104 Accepted
[Thu Jun 24 18:41:01 2021] 127.0.0.1:60208 [200]: GET /admin-panel/css/bootstrap
.min.css
[Thu Jun 24 18:41:01 2021] 127.0.0.1:57104 [200]: GET /admin-panel/js/bootstrap.
min.js
[Thu Jun 24 18:41:01 2021] 127.0.0.1:60208 Closing
[Thu Jun 24 18:41:01 2021] 127.0.0.1:57104 Closing
[Thu Jun 24 18:41:02 2021] 127.0.0.1:62172 Accepted
[Thu Jun 24 18:41:02 2021] 127.0.0.1:62172 [200]: GET /favicon.ico
[Thu Jun 24 18:41:02 2021] 127.0.0.1:62172 Closing
[Thu Jun 24 18:41:02 2021] 127.0.0.1:61086 Accepted
[Thu Jun 24 18:41:08 2021] 127.0.0.1:61086 Closing
[Thu Jun 24 18:41:08 2021] 127.0.0.1:61625 Accepted
[Thu Jun 24 18:41:08 2021] 127.0.0.1:61625 [200]: GET /admin-panel/css/bootstrap
.min.css
[Thu Jun 24 18:41:08 2021] 127.0.0.1:61625 Closing
[Thu Jun 24 18:41:09 2021] 127.0.0.1:59934 Accepted
[Thu Jun 24 18:41:09 2021] 127.0.0.1:59934 [200]: GET /admin-panel/js/bootstrap.
min.js
[Thu Jun 24 18:41:09 2021] 127.0.0.1:59934 Closing
[Thu Jun 24 18:41:09 2021] 127.0.0.1:53479 Accepted
[Thu Jun 24 18:41:09 2021] 127.0.0.1:53479 [200]: GET /favicon.ico
[Thu Jun 24 18:41:09 2021] 127.0.0.1:53479 Closing
[Thu Jun 24 18:41:09 2021] 127.0.0.1:56889 Accepted
[Thu Jun 24 18:41:10 2021] 127.0.0.1:56889 Closing
[Thu Jun 24 18:41:10 2021] 127.0.0.1:57984 Accepted
[Thu Jun 24 18:41:10 2021] 127.0.0.1:57984 Closing
[Thu Jun 24 18:41:10 2021] 127.0.0.1:57813 Accepted
[Thu Jun 24 18:41:10 2021] 127.0.0.1:50632 Accepted
[Thu Jun 24 18:41:10 2021] 127.0.0.1:57813 [200]: GET /admin-panel/css/bootstrap
.min.css
[Thu Jun 24 18:41:10 2021] 127.0.0.1:50632 [200]: GET /admin-panel/js/bootstrap.
min.js
[Thu Jun 24 18:41:10 2021] 127.0.0.1:57813 Closing
[Thu Jun 24 18:41:10 2021] 127.0.0.1:50632 Closing
[Thu Jun 24 18:41:11 2021] 127.0.0.1:60194 Accepted
[Thu Jun 24 18:41:11 2021] 127.0.0.1:60194 [200]: GET /favicon.ico
[Thu Jun 24 18:41:11 2021] 127.0.0.1:60194 Closing
[Thu Jun 24 18:41:11 2021] 127.0.0.1:51762 Accepted
[Thu Jun 24 18:41:16 2021] 127.0.0.1:51762 Closing
[Thu Jun 24 18:41:16 2021] 127.0.0.1:55667 Accepted
[Thu Jun 24 18:41:17 2021] 127.0.0.1:55667 Closing
[Thu Jun 24 18:41:17 2021] 127.0.0.1:65206 Accepted
[Thu Jun 24 18:41:17 2021] 127.0.0.1:62139 Accepted
[Thu Jun 24 18:41:17 2021] 127.0.0.1:65206 [200]: GET /admin-panel/css/bootstrap
.min.css
[Thu Jun 24 18:41:17 2021] 127.0.0.1:62139 [200]: GET /admin-panel/js/bootstrap.
min.js
[Thu Jun 24 18:41:17 2021] 127.0.0.1:65206 Closing
[Thu Jun 24 18:41:17 2021] 127.0.0.1:62139 Closing
[Thu Jun 24 18:41:17 2021] 127.0.0.1:64684 Accepted
[Thu Jun 24 18:41:17 2021] 127.0.0.1:64684 [200]: GET /favicon.ico
[Thu Jun 24 18:41:17 2021] 127.0.0.1:64684 Closing
[Thu Jun 24 18:41:17 2021] 127.0.0.1:50599 Accepted
[Thu Jun 24 18:41:40 2021] 127.0.0.1:50599 Closing
[Thu Jun 24 18:41:41 2021] 127.0.0.1:58051 Accepted
[Thu Jun 24 18:41:41 2021] 127.0.0.1:58051 Closing
[Thu Jun 24 18:41:41 2021] 127.0.0.1:60541 Accepted
[Thu Jun 24 18:41:41 2021] 127.0.0.1:60685 Accepted
[Thu Jun 24 18:41:41 2021] 127.0.0.1:60541 [200]: GET /admin-panel/css/bootstrap
.min.css
[Thu Jun 24 18:41:41 2021] 127.0.0.1:60685 [200]: GET /admin-panel/js/bootstrap.
min.js
[Thu Jun 24 18:41:41 2021] 127.0.0.1:60541 Closing
[Thu Jun 24 18:41:41 2021] 127.0.0.1:60685 Closing
[Thu Jun 24 18:41:41 2021] 127.0.0.1:49846 Accepted
[Thu Jun 24 18:41:41 2021] 127.0.0.1:49846 [200]: GET /favicon.ico
[Thu Jun 24 18:41:41 2021] 127.0.0.1:49846 Closing
[Thu Jun 24 18:41:41 2021] 127.0.0.1:52828 Accepted
[Thu Jun 24 18:44:52 2021] 127.0.0.1:52828 Closed without sending a request; it
was probably just an unused speculative preconnection
[Thu Jun 24 18:44:52 2021] 127.0.0.1:52828 Closing

yashm@DESKTOP-BJDMDRV MINGW64 ~/Documents/Degree/Backend/Framework/wordoid (categories)
$ php artisan make:request app/Http/Requests/Categories/UpdateCategoryRequest
Request created successfully.

yashm@DESKTOP-BJDMDRV MINGW64 ~/Documents/Degree/Backend/Framework/wordoid (categories)
$ php artisan serve
Starting Laravel development server: http://127.0.0.1:8000
[Thu Jun 24 19:20:16 2021] PHP 8.0.1 Development Server (http://127.0.0.1:8000)
started
[Thu Jun 24 19:20:21 2021] 127.0.0.1:64971 Accepted
[Thu Jun 24 19:20:21 2021] 127.0.0.1:53307 Accepted
[Thu Jun 24 19:20:21 2021] 127.0.0.1:64971 Closing
[Thu Jun 24 19:20:21 2021] 127.0.0.1:53307 [200]: GET /admin-panel/css/bootstrap
.min.css
[Thu Jun 24 19:20:21 2021] 127.0.0.1:53307 Closing
[Thu Jun 24 19:20:21 2021] 127.0.0.1:58918 Accepted
[Thu Jun 24 19:20:21 2021] 127.0.0.1:58918 [200]: GET /admin-panel/js/bootstrap.
min.js
[Thu Jun 24 19:20:21 2021] 127.0.0.1:58918 Closing
[Thu Jun 24 19:20:22 2021] 127.0.0.1:59941 Accepted
[Thu Jun 24 19:20:22 2021] 127.0.0.1:59941 [200]: GET /favicon.ico
[Thu Jun 24 19:20:22 2021] 127.0.0.1:59941 Closing
[Thu Jun 24 19:20:22 2021] 127.0.0.1:59072 Accepted
[Thu Jun 24 19:20:26 2021] 127.0.0.1:59072 Closing
[Thu Jun 24 19:20:27 2021] 127.0.0.1:52109 Accepted
[Thu Jun 24 19:20:27 2021] 127.0.0.1:52109 [200]: GET /admin-panel/css/bootstrap
.min.css
[Thu Jun 24 19:20:27 2021] 127.0.0.1:52109 Closing
[Thu Jun 24 19:20:27 2021] 127.0.0.1:62057 Accepted
[Thu Jun 24 19:20:27 2021] 127.0.0.1:62057 [200]: GET /admin-panel/js/bootstrap.
min.js
[Thu Jun 24 19:20:27 2021] 127.0.0.1:62057 Closing
[Thu Jun 24 19:20:27 2021] 127.0.0.1:60903 Accepted
[Thu Jun 24 19:20:27 2021] 127.0.0.1:60903 [200]: GET /favicon.ico
[Thu Jun 24 19:20:27 2021] 127.0.0.1:60903 Closing
[Thu Jun 24 19:20:27 2021] 127.0.0.1:60994 Accepted
[Thu Jun 24 19:20:35 2021] 127.0.0.1:60994 Closing
[Thu Jun 24 19:20:35 2021] 127.0.0.1:56352 Accepted
[Thu Jun 24 19:20:35 2021] 127.0.0.1:56352 [200]: GET /favicon.ico
[Thu Jun 24 19:20:35 2021] 127.0.0.1:56352 Closing
[Thu Jun 24 19:21:31 2021] 127.0.0.1:50097 Accepted
[Thu Jun 24 19:21:31 2021] 127.0.0.1:53407 Accepted
[Thu Jun 24 19:21:31 2021] PHP Fatal error:  Cannot declare class App\Http\Reque
sts\app\Http\Requests\Categories\UpdateCategoryRequest, because the name is alre
ady in use in C:\Users\yashm\Documents\Degree\Backend\Framework\wordoid\app\Http
\Requests\Categories\UpdateCategoryRequest.php on line 7
[Thu Jun 24 19:21:31 2021] 127.0.0.1:50097 Closing
[Thu Jun 24 19:21:31 2021] 127.0.0.1:51658 Accepted
[Thu Jun 24 19:21:31 2021] 127.0.0.1:53407 [200]: GET /favicon.ico
[Thu Jun 24 19:21:31 2021] 127.0.0.1:53407 Closing
[Thu Jun 24 19:21:35 2021] 127.0.0.1:51658 Closing
[Thu Jun 24 19:21:35 2021] 127.0.0.1:57704 Accepted
[Thu Jun 24 19:21:35 2021] 127.0.0.1:57704 [200]: GET /favicon.ico
[Thu Jun 24 19:21:35 2021] 127.0.0.1:57704 Closing
[Thu Jun 24 19:21:35 2021] 127.0.0.1:59112 Accepted
[Thu Jun 24 19:21:37 2021] 127.0.0.1:59112 Closing
[Thu Jun 24 19:21:38 2021] 127.0.0.1:65533 Accepted
[Thu Jun 24 19:21:38 2021] 127.0.0.1:65533 [200]: GET /admin-panel/css/bootstrap
.min.css
[Thu Jun 24 19:21:38 2021] 127.0.0.1:65533 Closing
[Thu Jun 24 19:21:38 2021] 127.0.0.1:57082 Accepted
[Thu Jun 24 19:21:38 2021] 127.0.0.1:57082 [200]: GET /admin-panel/js/bootstrap.
min.js
[Thu Jun 24 19:21:38 2021] 127.0.0.1:57082 Closing
[Thu Jun 24 19:21:38 2021] 127.0.0.1:54296 Accepted
[Thu Jun 24 19:21:38 2021] 127.0.0.1:54296 [200]: GET /favicon.ico
[Thu Jun 24 19:21:38 2021] 127.0.0.1:54296 Closing
[Thu Jun 24 19:21:38 2021] 127.0.0.1:60088 Accepted
[Thu Jun 24 19:21:40 2021] 127.0.0.1:60088 Closing
[Thu Jun 24 19:21:40 2021] 127.0.0.1:62428 Accepted
[Thu Jun 24 19:21:40 2021] 127.0.0.1:62428 [200]: GET /admin-panel/css/bootstrap
.min.css
[Thu Jun 24 19:21:40 2021] 127.0.0.1:62428 Closing
[Thu Jun 24 19:21:40 2021] 127.0.0.1:51163 Accepted
[Thu Jun 24 19:21:40 2021] 127.0.0.1:51163 [200]: GET /admin-panel/js/bootstrap.
min.js
[Thu Jun 24 19:21:40 2021] 127.0.0.1:51163 Closing
[Thu Jun 24 19:21:40 2021] 127.0.0.1:57364 Accepted
[Thu Jun 24 19:21:40 2021] 127.0.0.1:57364 [200]: GET /favicon.ico
[Thu Jun 24 19:21:40 2021] 127.0.0.1:57364 Closing
[Thu Jun 24 19:21:40 2021] 127.0.0.1:60536 Accepted
[Thu Jun 24 19:21:42 2021] 127.0.0.1:60536 Closing
[Thu Jun 24 19:21:42 2021] 127.0.0.1:51319 Accepted
[Thu Jun 24 19:21:42 2021] 127.0.0.1:51319 [200]: GET /admin-panel/css/bootstrap
.min.css
[Thu Jun 24 19:21:42 2021] 127.0.0.1:51319 Closing
[Thu Jun 24 19:21:42 2021] 127.0.0.1:60114 Accepted
[Thu Jun 24 19:21:42 2021] 127.0.0.1:60114 [200]: GET /admin-panel/js/bootstrap.
min.js
[Thu Jun 24 19:21:42 2021] 127.0.0.1:60114 Closing
[Thu Jun 24 19:21:42 2021] 127.0.0.1:50056 Accepted
[Thu Jun 24 19:21:42 2021] 127.0.0.1:50056 [200]: GET /favicon.ico
[Thu Jun 24 19:21:42 2021] 127.0.0.1:50056 Closing
[Thu Jun 24 19:21:42 2021] 127.0.0.1:56957 Accepted
[Thu Jun 24 19:21:43 2021] PHP Fatal error:  Cannot declare class App\Http\Reque
sts\app\Http\Requests\Categories\UpdateCategoryRequest, because the name is alre
ady in use in C:\Users\yashm\Documents\Degree\Backend\Framework\wordoid\app\Http
\Requests\Categories\UpdateCategoryRequest.php on line 7
[Thu Jun 24 19:21:43 2021] 127.0.0.1:56957 Closing
[Thu Jun 24 19:21:43 2021] 127.0.0.1:57333 Accepted
[Thu Jun 24 19:21:43 2021] 127.0.0.1:57333 [200]: GET /favicon.ico
[Thu Jun 24 19:21:43 2021] 127.0.0.1:57333 Closing
[Thu Jun 24 19:22:09 2021] 127.0.0.1:61640 Accepted
[Thu Jun 24 19:22:09 2021] 127.0.0.1:50729 Accepted
[Thu Jun 24 19:22:09 2021] 127.0.0.1:61640 [200]: GET /favicon.ico
[Thu Jun 24 19:22:09 2021] 127.0.0.1:61640 Closing
[Thu Jun 24 19:22:09 2021] 127.0.0.1:65459 Accepted
[Thu Jun 24 19:22:11 2021] 127.0.0.1:50729 Closing
[Thu Jun 24 19:22:11 2021] 127.0.0.1:65459 [200]: GET /admin-panel/css/bootstrap
.min.css
[Thu Jun 24 19:22:11 2021] 127.0.0.1:65459 Closing
[Thu Jun 24 19:22:11 2021] 127.0.0.1:56931 Accepted
[Thu Jun 24 19:22:11 2021] 127.0.0.1:56931 [200]: GET /admin-panel/js/bootstrap.
min.js
[Thu Jun 24 19:22:11 2021] 127.0.0.1:56931 Closing
[Thu Jun 24 19:22:11 2021] 127.0.0.1:65294 Accepted
[Thu Jun 24 19:22:11 2021] 127.0.0.1:65294 [200]: GET /favicon.ico
[Thu Jun 24 19:22:11 2021] 127.0.0.1:65294 Closing
[Thu Jun 24 19:22:11 2021] 127.0.0.1:64046 Accepted
[Thu Jun 24 19:22:16 2021] PHP Fatal error:  Cannot declare class App\Http\Reque
sts\app\Http\Requests\Categories\UpdateCategoryRequest, because the name is alre
ady in use in C:\Users\yashm\Documents\Degree\Backend\Framework\wordoid\app\Http
\Requests\Categories\UpdateCategoryRequest.php on line 7
[Thu Jun 24 19:22:16 2021] 127.0.0.1:64046 Closing
[Thu Jun 24 19:22:16 2021] 127.0.0.1:50497 Accepted
[Thu Jun 24 19:22:16 2021] 127.0.0.1:50497 [200]: GET /favicon.ico
[Thu Jun 24 19:22:16 2021] 127.0.0.1:50497 Closing
[Thu Jun 24 19:25:44 2021] 127.0.0.1:57893 Accepted
[Thu Jun 24 19:25:44 2021] 127.0.0.1:64187 Accepted
[Thu Jun 24 19:25:44 2021] PHP Fatal error:  Cannot declare class App\Http\Reque
sts\app\Http\Requests\Categories\UpdateCategoryRequest, because the name is alre
ady in use in C:\Users\yashm\Documents\Degree\Backend\Framework\wordoid\app\Http
\Requests\Categories\UpdateCategoryRequest.php on line 7
[Thu Jun 24 19:25:44 2021] 127.0.0.1:57893 Closing
[Thu Jun 24 19:25:45 2021] 127.0.0.1:52447 Accepted
[Thu Jun 24 19:25:45 2021] 127.0.0.1:64187 [200]: GET /favicon.ico
[Thu Jun 24 19:25:45 2021] 127.0.0.1:64187 Closing
[Thu Jun 24 19:29:46 2021] 127.0.0.1:52447 Closed without sending a request; it
was probably just an unused speculative preconnection
[Thu Jun 24 19:29:46 2021] 127.0.0.1:52447 Closing
[Thu Jun 24 19:29:47 2021] 127.0.0.1:54137 Accepted
[Thu Jun 24 19:29:47 2021] 127.0.0.1:51207 Accepted
[Thu Jun 24 19:29:47 2021] 127.0.0.1:54137 Closing
[Thu Jun 24 19:29:47 2021] 127.0.0.1:53403 Accepted
[Thu Jun 24 19:29:48 2021] 127.0.0.1:51207 Closing
[Thu Jun 24 19:29:48 2021] 127.0.0.1:53403 [200]: GET /favicon.ico
[Thu Jun 24 19:29:48 2021] 127.0.0.1:53403 Closing
[Thu Jun 24 19:30:52 2021] 127.0.0.1:56232 Accepted
[Thu Jun 24 19:30:52 2021] 127.0.0.1:52195 Accepted
[Thu Jun 24 19:30:52 2021] 127.0.0.1:56232 Closing
[Thu Jun 24 19:30:52 2021] 127.0.0.1:56344 Accepted
[Thu Jun 24 19:30:52 2021] 127.0.0.1:52195 [200]: GET /favicon.ico
[Thu Jun 24 19:30:52 2021] 127.0.0.1:52195 Closing
[Thu Jun 24 19:30:59 2021] 127.0.0.1:56344 Closing
[Thu Jun 24 19:30:59 2021] 127.0.0.1:56629 Accepted
[Thu Jun 24 19:30:59 2021] 127.0.0.1:56629 [200]: GET /admin-panel/css/bootstrap
.min.css
[Thu Jun 24 19:30:59 2021] 127.0.0.1:56629 Closing
[Thu Jun 24 19:30:59 2021] 127.0.0.1:54099 Accepted
[Thu Jun 24 19:30:59 2021] 127.0.0.1:54099 [200]: GET /admin-panel/js/bootstrap.
min.js
[Thu Jun 24 19:30:59 2021] 127.0.0.1:54099 Closing
[Thu Jun 24 19:31:00 2021] 127.0.0.1:58342 Accepted
[Thu Jun 24 19:31:00 2021] 127.0.0.1:58342 [200]: GET /favicon.ico
[Thu Jun 24 19:31:00 2021] 127.0.0.1:58342 Closing
[Thu Jun 24 19:31:00 2021] 127.0.0.1:62293 Accepted
[Thu Jun 24 19:31:01 2021] 127.0.0.1:62293 Closing
[Thu Jun 24 19:31:01 2021] 127.0.0.1:60484 Accepted
[Thu Jun 24 19:31:01 2021] 127.0.0.1:60484 [200]: GET /admin-panel/css/bootstrap
.min.css
[Thu Jun 24 19:31:01 2021] 127.0.0.1:60484 Closing
[Thu Jun 24 19:31:02 2021] 127.0.0.1:56185 Accepted
[Thu Jun 24 19:31:02 2021] 127.0.0.1:56185 [200]: GET /admin-panel/js/bootstrap.
min.js
[Thu Jun 24 19:31:02 2021] 127.0.0.1:56185 Closing
[Thu Jun 24 19:31:02 2021] 127.0.0.1:64835 Accepted
[Thu Jun 24 19:31:02 2021] 127.0.0.1:64835 [200]: GET /favicon.ico
[Thu Jun 24 19:31:02 2021] 127.0.0.1:64835 Closing
[Thu Jun 24 19:31:02 2021] 127.0.0.1:63350 Accepted
[Thu Jun 24 19:31:04 2021] 127.0.0.1:63350 Closing
[Thu Jun 24 19:31:04 2021] 127.0.0.1:50711 Accepted
[Thu Jun 24 19:31:04 2021] 127.0.0.1:50711 [200]: GET /admin-panel/css/bootstrap
.min.css
[Thu Jun 24 19:31:04 2021] 127.0.0.1:50711 Closing
[Thu Jun 24 19:31:04 2021] 127.0.0.1:51900 Accepted
[Thu Jun 24 19:31:04 2021] 127.0.0.1:51900 [200]: GET /admin-panel/js/bootstrap.
min.js
[Thu Jun 24 19:31:04 2021] 127.0.0.1:51900 Closing
[Thu Jun 24 19:31:04 2021] 127.0.0.1:61790 Accepted
[Thu Jun 24 19:31:04 2021] 127.0.0.1:61790 [200]: GET /favicon.ico
[Thu Jun 24 19:31:04 2021] 127.0.0.1:61790 Closing
[Thu Jun 24 19:31:05 2021] 127.0.0.1:56227 Accepted
[Thu Jun 24 19:31:06 2021] 127.0.0.1:56227 Closing
[Thu Jun 24 19:31:06 2021] 127.0.0.1:54944 Accepted
[Thu Jun 24 19:31:06 2021] 127.0.0.1:54944 [200]: GET /admin-panel/css/bootstrap
.min.css
[Thu Jun 24 19:31:06 2021] 127.0.0.1:54944 Closing
[Thu Jun 24 19:31:06 2021] 127.0.0.1:58546 Accepted
[Thu Jun 24 19:31:06 2021] 127.0.0.1:58546 [200]: GET /admin-panel/js/bootstrap.
min.js
[Thu Jun 24 19:31:06 2021] 127.0.0.1:58546 Closing
[Thu Jun 24 19:31:06 2021] 127.0.0.1:63322 Accepted
[Thu Jun 24 19:31:06 2021] 127.0.0.1:63322 [200]: GET /favicon.ico
[Thu Jun 24 19:31:06 2021] 127.0.0.1:63322 Closing
[Thu Jun 24 19:31:07 2021] 127.0.0.1:60467 Accepted
[Thu Jun 24 19:31:09 2021] 127.0.0.1:60467 Closing
[Thu Jun 24 19:31:09 2021] 127.0.0.1:49670 Accepted
[Thu Jun 24 19:31:09 2021] 127.0.0.1:49670 [200]: GET /admin-panel/css/bootstrap
.min.css
[Thu Jun 24 19:31:09 2021] 127.0.0.1:49670 Closing
[Thu Jun 24 19:31:10 2021] 127.0.0.1:49764 Accepted
[Thu Jun 24 19:31:10 2021] 127.0.0.1:49764 [200]: GET /admin-panel/js/bootstrap.
min.js
[Thu Jun 24 19:31:10 2021] 127.0.0.1:49764 Closing
[Thu Jun 24 19:31:10 2021] 127.0.0.1:55586 Accepted
[Thu Jun 24 19:31:10 2021] 127.0.0.1:55586 [200]: GET /favicon.ico
[Thu Jun 24 19:31:10 2021] 127.0.0.1:55586 Closing
[Thu Jun 24 19:31:10 2021] 127.0.0.1:49870 Accepted
[Thu Jun 24 19:31:14 2021] 127.0.0.1:49870 Closing
[Thu Jun 24 19:31:14 2021] 127.0.0.1:49848 Accepted
[Thu Jun 24 19:31:15 2021] 127.0.0.1:49848 Closing
[Thu Jun 24 19:31:15 2021] 127.0.0.1:59115 Accepted
[Thu Jun 24 19:31:15 2021] 127.0.0.1:59115 [200]: GET /favicon.ico
[Thu Jun 24 19:31:15 2021] 127.0.0.1:59115 Closing
[Thu Jun 24 19:31:40 2021] 127.0.0.1:56354 Accepted
[Thu Jun 24 19:31:40 2021] 127.0.0.1:55722 Accepted
[Thu Jun 24 19:31:41 2021] 127.0.0.1:56354 Closing
[Thu Jun 24 19:31:41 2021] 127.0.0.1:60637 Accepted
[Thu Jun 24 19:31:41 2021] 127.0.0.1:55722 Closing
[Thu Jun 24 19:31:41 2021] 127.0.0.1:60637 [200]: GET /admin-panel/css/bootstrap
.min.css
[Thu Jun 24 19:31:41 2021] 127.0.0.1:60637 Closing
[Thu Jun 24 19:31:41 2021] 127.0.0.1:52638 Accepted
[Thu Jun 24 19:31:41 2021] 127.0.0.1:52638 [200]: GET /admin-panel/js/bootstrap.
min.js
[Thu Jun 24 19:31:41 2021] 127.0.0.1:52638 Closing
[Thu Jun 24 19:31:42 2021] 127.0.0.1:60705 Accepted
[Thu Jun 24 19:31:42 2021] 127.0.0.1:60705 [200]: GET /favicon.ico
[Thu Jun 24 19:31:42 2021] 127.0.0.1:60705 Closing
[Thu Jun 24 19:31:42 2021] 127.0.0.1:53592 Accepted
[Thu Jun 24 19:34:54 2021] 127.0.0.1:53592 Closed without sending a request; it
was probably just an unused speculative preconnection
[Thu Jun 24 19:34:54 2021] 127.0.0.1:53592 Closing
[Thu Jun 24 20:05:26 2021] 127.0.0.1:57134 Accepted
[Thu Jun 24 20:05:26 2021] 127.0.0.1:55164 Accepted
[Thu Jun 24 20:05:26 2021] 127.0.0.1:57134 Closing
[Thu Jun 24 20:05:26 2021] 127.0.0.1:55164 [200]: GET /admin-panel/css/bootstrap
.min.css
[Thu Jun 24 20:05:26 2021] 127.0.0.1:55164 Closing
[Thu Jun 24 20:05:26 2021] 127.0.0.1:53048 Accepted
[Thu Jun 24 20:05:26 2021] 127.0.0.1:53048 [200]: GET /admin-panel/js/bootstrap.
min.js
[Thu Jun 24 20:05:26 2021] 127.0.0.1:53048 Closing
[Thu Jun 24 20:05:27 2021] 127.0.0.1:52565 Accepted
[Thu Jun 24 20:05:27 2021] 127.0.0.1:52565 [200]: GET /favicon.ico
[Thu Jun 24 20:05:27 2021] 127.0.0.1:52565 Closing
[Thu Jun 24 20:05:27 2021] 127.0.0.1:58182 Accepted
[Thu Jun 24 20:05:39 2021] 127.0.0.1:58182 [200]: GET /admin-panel/css/bootstrap
.min.css
[Thu Jun 24 20:05:39 2021] 127.0.0.1:58182 Closing
[Thu Jun 24 20:05:40 2021] 127.0.0.1:62148 Accepted
[Thu Jun 24 20:05:40 2021] 127.0.0.1:52443 Accepted
[Thu Jun 24 20:05:40 2021] 127.0.0.1:62148 Closing
[Thu Jun 24 20:05:40 2021] 127.0.0.1:52443 Closing
[Thu Jun 24 20:05:40 2021] 127.0.0.1:60129 Accepted
[Thu Jun 24 20:06:46 2021] 127.0.0.1:60129 Closed without sending a request; it
was probably just an unused speculative preconnection
[Thu Jun 24 20:06:46 2021] 127.0.0.1:60129 Closing
[Thu Jun 24 20:06:46 2021] 127.0.0.1:58932 Accepted
[Thu Jun 24 20:06:46 2021] 127.0.0.1:56713 Accepted
[Thu Jun 24 20:06:47 2021] 127.0.0.1:58932 Closing
[Thu Jun 24 20:06:47 2021] 127.0.0.1:56713 [200]: GET /admin-panel/css/bootstrap
.min.css
[Thu Jun 24 20:06:47 2021] 127.0.0.1:56713 Closing
[Thu Jun 24 20:06:47 2021] 127.0.0.1:55660 Accepted
[Thu Jun 24 20:06:47 2021] 127.0.0.1:55660 [200]: GET /admin-panel/js/bootstrap.
min.js
[Thu Jun 24 20:06:47 2021] 127.0.0.1:55660 Closing
[Thu Jun 24 20:06:47 2021] 127.0.0.1:52197 Accepted
[Thu Jun 24 20:06:47 2021] 127.0.0.1:52197 [200]: GET /favicon.ico
[Thu Jun 24 20:06:47 2021] 127.0.0.1:52197 Closing
[Thu Jun 24 20:06:47 2021] 127.0.0.1:54554 Accepted
[Thu Jun 24 20:06:54 2021] 127.0.0.1:54554 Closing
[Thu Jun 24 20:06:54 2021] 127.0.0.1:57592 Accepted
[Thu Jun 24 20:06:54 2021] 127.0.0.1:57592 [200]: GET /favicon.ico
[Thu Jun 24 20:06:54 2021] 127.0.0.1:57592 Closing
[Thu Jun 24 20:09:30 2021] 127.0.0.1:63968 Accepted
[Thu Jun 24 20:09:30 2021] 127.0.0.1:60994 Accepted
[Thu Jun 24 20:09:31 2021] 127.0.0.1:63968 Closing
[Thu Jun 24 20:09:31 2021] 127.0.0.1:62990 Accepted
[Thu Jun 24 20:09:31 2021] 127.0.0.1:60994 [200]: GET /favicon.ico
[Thu Jun 24 20:09:31 2021] 127.0.0.1:60994 Closing
[Thu Jun 24 20:09:33 2021] 127.0.0.1:62990 Closing
[Thu Jun 24 20:09:33 2021] 127.0.0.1:58009 Accepted
[Thu Jun 24 20:09:33 2021] 127.0.0.1:58009 [200]: GET /admin-panel/css/bootstrap
.min.css
[Thu Jun 24 20:09:33 2021] 127.0.0.1:58009 Closing
[Thu Jun 24 20:09:33 2021] 127.0.0.1:59306 Accepted
[Thu Jun 24 20:09:33 2021] 127.0.0.1:59306 [200]: GET /admin-panel/js/bootstrap.
min.js
[Thu Jun 24 20:09:33 2021] 127.0.0.1:59306 Closing
[Thu Jun 24 20:09:33 2021] 127.0.0.1:56497 Accepted
[Thu Jun 24 20:09:33 2021] 127.0.0.1:56497 [200]: GET /favicon.ico
[Thu Jun 24 20:09:33 2021] 127.0.0.1:56497 Closing
[Thu Jun 24 20:09:33 2021] 127.0.0.1:62451 Accepted
[Thu Jun 24 20:09:35 2021] 127.0.0.1:62451 Closing
[Thu Jun 24 20:09:35 2021] 127.0.0.1:55240 Accepted
[Thu Jun 24 20:09:35 2021] 127.0.0.1:55240 [200]: GET /admin-panel/css/bootstrap
.min.css
[Thu Jun 24 20:09:35 2021] 127.0.0.1:55240 Closing
[Thu Jun 24 20:09:35 2021] 127.0.0.1:60182 Accepted
[Thu Jun 24 20:09:35 2021] 127.0.0.1:60182 [200]: GET /admin-panel/js/bootstrap.
min.js
[Thu Jun 24 20:09:35 2021] 127.0.0.1:60182 Closing
[Thu Jun 24 20:09:36 2021] 127.0.0.1:58630 Accepted
[Thu Jun 24 20:09:36 2021] 127.0.0.1:58630 [200]: GET /favicon.ico
[Thu Jun 24 20:09:36 2021] 127.0.0.1:58630 Closing
[Thu Jun 24 20:09:36 2021] 127.0.0.1:60224 Accepted
[Thu Jun 24 20:09:43 2021] 127.0.0.1:60224 Closing
[Thu Jun 24 20:09:43 2021] 127.0.0.1:51164 Accepted
[Thu Jun 24 20:09:44 2021] 127.0.0.1:51164 Closing
[Thu Jun 24 20:09:44 2021] 127.0.0.1:56429 Accepted
[Thu Jun 24 20:09:44 2021] 127.0.0.1:54144 Accepted
[Thu Jun 24 20:09:44 2021] 127.0.0.1:56429 [200]: GET /admin-panel/css/bootstrap
.min.css
[Thu Jun 24 20:09:44 2021] 127.0.0.1:54144 [200]: GET /admin-panel/js/bootstrap.
min.js
[Thu Jun 24 20:09:44 2021] 127.0.0.1:56429 Closing
[Thu Jun 24 20:09:44 2021] 127.0.0.1:54144 Closing
[Thu Jun 24 20:09:44 2021] 127.0.0.1:59720 Accepted
[Thu Jun 24 20:09:44 2021] 127.0.0.1:59720 [200]: GET /favicon.ico
[Thu Jun 24 20:09:44 2021] 127.0.0.1:59720 Closing
[Thu Jun 24 20:09:44 2021] 127.0.0.1:64439 Accepted
[Thu Jun 24 20:10:11 2021] 127.0.0.1:64439 Closing
[Thu Jun 24 20:10:11 2021] 127.0.0.1:63226 Accepted
[Thu Jun 24 20:10:11 2021] 127.0.0.1:63226 Closing
[Thu Jun 24 20:10:12 2021] 127.0.0.1:53488 Accepted
[Thu Jun 24 20:10:12 2021] 127.0.0.1:55608 Accepted
[Thu Jun 24 20:10:12 2021] 127.0.0.1:53488 [200]: GET /admin-panel/css/bootstrap
.min.css
[Thu Jun 24 20:10:12 2021] 127.0.0.1:55608 [200]: GET /admin-panel/js/bootstrap.
min.js
[Thu Jun 24 20:10:12 2021] 127.0.0.1:53488 Closing
[Thu Jun 24 20:10:12 2021] 127.0.0.1:55608 Closing
[Thu Jun 24 20:10:12 2021] 127.0.0.1:60419 Accepted
[Thu Jun 24 20:10:12 2021] 127.0.0.1:60419 [200]: GET /favicon.ico
[Thu Jun 24 20:10:12 2021] 127.0.0.1:60419 Closing
[Thu Jun 24 20:10:12 2021] 127.0.0.1:49671 Accepted
[Thu Jun 24 20:12:16 2021] 127.0.0.1:49671 Closed without sending a request; it
was probably just an unused speculative preconnection
[Thu Jun 24 20:12:16 2021] 127.0.0.1:49671 Closing

yashm@DESKTOP-BJDMDRV MINGW64 ~/Documents/Degree/Backend/Framework/wordoid (categories)
$ git add .
warning: LF will be replaced by CRLF in app/Http/Controllers/CategoriesController.php.
The file will have its original line endings in your working directory
warning: LF will be replaced by CRLF in resources/views/categories/index.blade.php.
The file will have its original line endings in your working directory
warning: LF will be replaced by CRLF in resources/views/layouts/admin-panel/app.blade.php.
The file will have its original line endings in your working directory
warning: LF will be replaced by CRLF in routes/web.php.
The file will have its original line endings in your working directory
warning: LF will be replaced by CRLF in app/Http/Requests/Categories/UpdateCategoryRequest.php.
The file will have its original line endings in your working directory
warning: LF will be replaced by CRLF in resources/views/categories/edit.blade.php.
The file will have its original line endings in your working directory
warning: LF will be replaced by CRLF in resources/views/layouts/partials/_message.blade.php.
The file will have its original line endings in your working directory

yashm@DESKTOP-BJDMDRV MINGW64 ~/Documents/Degree/Backend/Framework/wordoid (categories)
$ git commit -m "performed crud operations on categories"
[categories 18c9f5d] performed crud operations on categories
 9 files changed, 1325 insertions(+), 7 deletions(-)
 create mode 100644 Notekeeping/CMD 1.txt
 create mode 100644 Notekeeping/Git Branch, Merge.png
 create mode 100644 app/Http/Requests/Categories/UpdateCategoryRequest.php
 create mode 100644 resources/views/categories/edit.blade.php
 create mode 100644 resources/views/layouts/partials/_message.blade.php

yashm@DESKTOP-BJDMDRV MINGW64 ~/Documents/Degree/Backend/Framework/wordoid (categories)
$ git status
On branch categories
nothing to commit, working tree clean

yashm@DESKTOP-BJDMDRV MINGW64 ~/Documents/Degree/Backend/Framework/wordoid (categories)
$ git checkout master
Switched to branch 'master'

yashm@DESKTOP-BJDMDRV MINGW64 ~/Documents/Degree/Backend/Framework/wordoid (master)
$ git merge categories
Updating f4c9b6a..18c9f5d
Fast-forward
 Notekeeping/CMD 1.txt                              | 1193 ++++++++++++++++++++
 Notekeeping/Git Branch, Merge.png                  |  Bin 0 -> 282769 bytes
 app/Http/Controllers/CategoriesController.php      |  103 ++
 .../Requests/Categories/CreateCategoryRequest.php  |   30 +
 .../Requests/Categories/UpdateCategoryRequest.php  |   30 +
 app/Models/Category.php                            |   12 +
 .../2021_06_14_112341_create_categories_table.php  |   32 +
 public/admin-panel/css/bootstrap.min.css           |    7 +
 public/admin-panel/js/bootstrap.min.js             |    7 +
 resources/views/categories/create.blade.php        |   25 +
 resources/views/categories/edit.blade.php          |   26 +
 resources/views/categories/index.blade.php         |   70 ++
 resources/views/dashboard.blade.php                |   20 +-
 resources/views/layouts/admin-panel/app.blade.php  |   71 ++
 .../views/layouts/partials/_message.blade.php      |   15 +
 .../views/vendor/pagination/bootstrap-4.blade.php  |   46 +
 .../views/vendor/pagination/default.blade.php      |   46 +
 .../views/vendor/pagination/semantic-ui.blade.php  |   36 +
 .../vendor/pagination/simple-bootstrap-4.blade.php |   27 +
 .../vendor/pagination/simple-default.blade.php     |   19 +
 .../vendor/pagination/simple-tailwind.blade.php    |   25 +
 .../views/vendor/pagination/tailwind.blade.php     |  102 ++
 routes/web.php                                     |    5 +
 23 files changed, 1931 insertions(+), 16 deletions(-)
 create mode 100644 Notekeeping/CMD 1.txt
 create mode 100644 Notekeeping/Git Branch, Merge.png
 create mode 100644 app/Http/Controllers/CategoriesController.php
 create mode 100644 app/Http/Requests/Categories/CreateCategoryRequest.php
 create mode 100644 app/Http/Requests/Categories/UpdateCategoryRequest.php
 create mode 100644 app/Models/Category.php
 create mode 100644 database/migrations/2021_06_14_112341_create_categories_table.php
 create mode 100644 public/admin-panel/css/bootstrap.min.css
 create mode 100644 public/admin-panel/js/bootstrap.min.js
 create mode 100644 resources/views/categories/create.blade.php
 create mode 100644 resources/views/categories/edit.blade.php
 create mode 100644 resources/views/categories/index.blade.php
 create mode 100644 resources/views/layouts/admin-panel/app.blade.php
 create mode 100644 resources/views/layouts/partials/_message.blade.php
 create mode 100644 resources/views/vendor/pagination/bootstrap-4.blade.php
 create mode 100644 resources/views/vendor/pagination/default.blade.php
 create mode 100644 resources/views/vendor/pagination/semantic-ui.blade.php
 create mode 100644 resources/views/vendor/pagination/simple-bootstrap-4.blade.php
 create mode 100644 resources/views/vendor/pagination/simple-default.blade.php
 create mode 100644 resources/views/vendor/pagination/simple-tailwind.blade.php
 create mode 100644 resources/views/vendor/pagination/tailwind.blade.php

yashm@DESKTOP-BJDMDRV MINGW64 ~/Documents/Degree/Backend/Framework/wordoid (master)
$ git branch -d categories
Deleted branch categories (was 18c9f5d).

yashm@DESKTOP-BJDMDRV MINGW64 ~/Documents/Degree/Backend/Framework/wordoid (master)
$ git branch
* master

yashm@DESKTOP-BJDMDRV MINGW64 ~/Documents/Degree/Backend/Framework/wordoid (master)
$ git push origin master
Enumerating objects: 40, done.
Counting objects: 100% (40/40), done.
Delta compression using up to 8 threads
Compressing objects: 100% (22/22), done.
Writing objects: 100% (24/24), 276.99 KiB | 16.29 MiB/s, done.
Total 24 (delta 9), reused 0 (delta 0), pack-reused 0
To https://gitlab.com/yashmehta2711/wordoid.git
   f4c9b6a..18c9f5d  master -> master

yashm@DESKTOP-BJDMDRV MINGW64 ~/Documents/Degree/Backend/Framework/wordoid (master)
$
